[
	{"coordinates":[2.362963,48.853133],"name":"Projet JOGL #1","desc": "Lorem ipsum dolor sit amet, consectetur adipiscing elit"},
	{"coordinates":[28.96,13.66033],"name":"Al Zarnkh","desc": "Lorem ipsum dolor sit amet, consectetur adipiscing elit"},
	{"coordinates":[6.01533,45.82133],"name":"Alby sur Chéran","desc": "Lorem ipsum dolor sit amet, consectetur adipiscing elit"},
	{"coordinates":[32.41275,20.74575],"name":"Almahata Sitta","desc": "Lorem ipsum dolor sit amet, consectetur adipiscing elit"},
	{"coordinates":[-97.01,31.805],"name":"Ash Creek","desc": "Lorem ipsum dolor sit amet, consectetur adipiscing elit"},
	{"coordinates":[-5.9,15.78333],"name":"Bassikounou","desc": "Lorem ipsum dolor sit amet, consectetur adipiscing elit"},
	{"coordinates":[-117.18913,40.66813],"name":"Battle Mountain","desc": "Lorem ipsum dolor sit amet, consectetur adipiscing elit"},
	{"coordinates":[-8.15,32.25],"name":"Benguerir","desc": "Lorem ipsum dolor sit amet, consectetur adipiscing elit"},
	{"coordinates":[10.8,32.86667],"name":"Beni M'hira","desc": "Lorem ipsum dolor sit amet, consectetur adipiscing elit"},
	{"coordinates":[-7,30],"name":"Bensour","desc": "Lorem ipsum dolor sit amet, consectetur adipiscing elit"},
	{"coordinates":[-58.32833,-31.91],"name":"Berduc","desc": "Lorem ipsum dolor sit amet, consectetur adipiscing elit"},
	{"coordinates":[-105.02325,40.30583],"name":"Berthoud","desc": "Lorem ipsum dolor sit amet, consectetur adipiscing elit"},
	{"coordinates":[73.11528,26.50833],"name":"Bhawad","desc": "Lorem ipsum dolor sit amet, consectetur adipiscing elit"},
	{"coordinates":[-11.3715,17.71067],"name":"Boumdeid (2003)","desc": "Lorem ipsum dolor sit amet, consectetur adipiscing elit"},
	{"coordinates":[-11.34133,17.17493],"name":"Boumdeid (2011)","desc": "Lorem ipsum dolor sit amet, consectetur adipiscing elit"},
	{"coordinates":[64.60035,39.77978],"name":"Bukhara","desc": "Lorem ipsum dolor sit amet, consectetur adipiscing elit"},
	{"coordinates":[129.19,-31.35],"name":"Bunburra Rockhole","desc": "Lorem ipsum dolor sit amet, consectetur adipiscing elit"},
	{"coordinates":[-109.84817,52.996],"name":"Buzzard Coulee","desc": "Lorem ipsum dolor sit amet, consectetur adipiscing elit"},
	{"coordinates":[-76.51,3.405],"name":"Cali","desc": "Lorem ipsum dolor sit amet, consectetur adipiscing elit"},
	{"coordinates":[-69.04389,-16.66444],"name":"Carancas","desc": "Lorem ipsum dolor sit amet, consectetur adipiscing elit"},
	{"coordinates":[61.11667,54.81667],"name":"Chelyabinsk","desc": "Lorem ipsum dolor sit amet, consectetur adipiscing elit"},
	{"coordinates":[-5.01472,23.69639],"name":"Chergach ","desc": "Lorem ipsum dolor sit amet, consectetur adipiscing elit"},
	{"coordinates":[-79.95756,-1.87089],"name":"Daule","desc": "Lorem ipsum dolor sit amet, consectetur adipiscing elit"},
	{"coordinates":[93.86667,26.68333],"name":"Dergaon","desc": "Lorem ipsum dolor sit amet, consectetur adipiscing elit"},
	{"coordinates":[81,19],"name":"Devgaon","desc": "Lorem ipsum dolor sit amet, consectetur adipiscing elit"},
	{"coordinates":[27.32997,37.35172],"name":"Didim","desc": "Lorem ipsum dolor sit amet, consectetur adipiscing elit"},
	{"coordinates":[-2.04167,14.15083],"name":"Gasseltepaoua","desc": "Lorem ipsum dolor sit amet, consectetur adipiscing elit"},
	{"coordinates":[-79.61667,43.2],"name":"Grimsby","desc": "Lorem ipsum dolor sit amet, consectetur adipiscing elit"},
	{"coordinates":[132.38333,34.45],"name":"Hiroshima","desc": "Lorem ipsum dolor sit amet, consectetur adipiscing elit"},
	{"coordinates":[31.47278,1.345],"name":"Hoima","desc": "Lorem ipsum dolor sit amet, consectetur adipiscing elit"},
	{"coordinates":[106.63241,26.46469],"name":"Huaxi","desc": "Lorem ipsum dolor sit amet, consectetur adipiscing elit"},
	{"coordinates":[14.05217,46.42137],"name":"Jesenice","desc": "Lorem ipsum dolor sit amet, consectetur adipiscing elit"},
	{"coordinates":[70.31333,22.68],"name":"Jodiya","desc": "Lorem ipsum dolor sit amet, consectetur adipiscing elit"},
	{"coordinates":[73.22329,20.33916],"name":"Kaprada","desc": "Lorem ipsum dolor sit amet, consectetur adipiscing elit"},
	{"coordinates":[77.58333,29.58333],"name":"Kasauli","desc": "Lorem ipsum dolor sit amet, consectetur adipiscing elit"},
	{"coordinates":[75.81333,25.14333],"name":"Kavarpura","desc": "Lorem ipsum dolor sit amet, consectetur adipiscing elit"},
	{"coordinates":[29.41822,36.54194],"name":"Kemer","desc": "Lorem ipsum dolor sit amet, consectetur adipiscing elit"},
	{"coordinates":[86.70278,20.4625],"name":"Kendrapara","desc": "Lorem ipsum dolor sit amet, consectetur adipiscing elit"},
	{"coordinates":[9.8,12.76667],"name":"Kilabo","desc": "Lorem ipsum dolor sit amet, consectetur adipiscing elit"},
	{"coordinates":[21.17633,48.76367],"name":"Košice","desc": "Lorem ipsum dolor sit amet, consectetur adipiscing elit"},
	{"coordinates":[-77.21163,38.70066],"name":"Lorton","desc": "Lorem ipsum dolor sit amet, consectetur adipiscing elit"},
	{"coordinates":[95.78333,27.66667],"name":"Mahadevpur","desc": "Lorem ipsum dolor sit amet, consectetur adipiscing elit"},
	{"coordinates":[9.38333,12.83333],"name":"Maigatari-Danduma","desc": "Lorem ipsum dolor sit amet, consectetur adipiscing elit"},
	{"coordinates":[11.46745,54.76183],"name":"Maribo","desc": "Lorem ipsum dolor sit amet, consectetur adipiscing elit"},
	{"coordinates":[48.1,-14.2],"name":"Maromandia","desc": "Lorem ipsum dolor sit amet, consectetur adipiscing elit"},
	{"coordinates":[0,0],"name":"Mason Gully","desc": "Lorem ipsum dolor sit amet, consectetur adipiscing elit"},
	{"coordinates":[-90.36556,42.9075],"name":"Mifflin","desc": "Lorem ipsum dolor sit amet, consectetur adipiscing elit"},
	{"coordinates":[18.53333,49.6],"name":"Morávka","desc": "Lorem ipsum dolor sit amet, consectetur adipiscing elit"},
	{"coordinates":[10.7,59.43333],"name":"Moss","desc": "Lorem ipsum dolor sit amet, consectetur adipiscing elit"},
	{"coordinates":[10.80833,47.525],"name":"Neuschwanstein","desc": "Lorem ipsum dolor sit amet, consectetur adipiscing elit"},
	{"coordinates":[-90.10976,29.94718],"name":"New Orleans","desc": "Lorem ipsum dolor sit amet, consectetur adipiscing elit"},
	{"coordinates":[-81.36222,28.5475],"name":"Orlando","desc": "Lorem ipsum dolor sit amet, consectetur adipiscing elit"},
	{"coordinates":[0.08,12.9],"name":"Ouadangou","desc": "Lorem ipsum dolor sit amet, consectetur adipiscing elit"},
	{"coordinates":[-13.1,24.3],"name":"Oum Dreyga","desc": "Lorem ipsum dolor sit amet, consectetur adipiscing elit"},
	{"coordinates":[-87.67917,41.48472],"name":"Park Forest","desc": "Lorem ipsum dolor sit amet, consectetur adipiscing elit"},
	{"coordinates":[26.70972,45.275],"name":"Pleşcoi","desc": "Lorem ipsum dolor sit amet, consectetur adipiscing elit"},
	{"coordinates":[-3.51667,39.35],"name":"Puerto Lápice","desc": "Lorem ipsum dolor sit amet, consectetur adipiscing elit"},
	{"coordinates":[-119.75812,38.13742],"name":"Red Canyon Lake","desc": "Lorem ipsum dolor sit amet, consectetur adipiscing elit"},
	{"coordinates":[13,43.66667],"name":"San Michele","desc": "Lorem ipsum dolor sit amet, consectetur adipiscing elit"},
	{"coordinates":[-68.48944,-31.53556],"name":"Santa Lucia (2008)","desc": "Lorem ipsum dolor sit amet, consectetur adipiscing elit"},
	{"coordinates":[22.005,54.00883],"name":"Sołtmany","desc": "Lorem ipsum dolor sit amet, consectetur adipiscing elit"},
	{"coordinates":[78.03333,12.66667],"name":"Sulagiri","desc": "Lorem ipsum dolor sit amet, consectetur adipiscing elit"},
	{"coordinates":[-120.90806,38.80389],"name":"Sutter's Mill","desc": "Lorem ipsum dolor sit amet, consectetur adipiscing elit"},
	{"coordinates":[-134.20139,59.70444],"name":"Tagish Lake","desc": "Lorem ipsum dolor sit amet, consectetur adipiscing elit"},
	{"coordinates":[-7.015,31.16333],"name":"Tamdakht","desc": "Lorem ipsum dolor sit amet, consectetur adipiscing elit"},
	{"coordinates":[37.15028,-1.00278],"name":"Thika","desc": "Lorem ipsum dolor sit amet, consectetur adipiscing elit"},
	{"coordinates":[27.58333,-29.33333],"name":"Thuathe","desc": "Lorem ipsum dolor sit amet, consectetur adipiscing elit"},
	{"coordinates":[-7.61123,29.48195],"name":"Tissint","desc": "Lorem ipsum dolor sit amet, consectetur adipiscing elit"},
	{"coordinates":[-41.73356,-20.85001],"name":"Varre-Sai","desc": "Lorem ipsum dolor sit amet, consectetur adipiscing elit"},
	{"coordinates":[-4.66667,42.8],"name":"Villalbeto de la Peña","desc": "Lorem ipsum dolor sit amet, consectetur adipiscing elit"},
	{"coordinates":[21.78713,32.79732],"name":"Werdama","desc": "Lorem ipsum dolor sit amet, consectetur adipiscing elit"},
	{"coordinates":[-110.43418,31.96185],"name":"Whetstone Mountains","desc": "Lorem ipsum dolor sit amet, consectetur adipiscing elit"},
	{"coordinates":[45.17,13.71111],"name":"Yafa","desc": "Lorem ipsum dolor sit amet, consectetur adipiscing elit"},
	{"coordinates":[48.95937,22.72192],"name":"Abar al' Uj 001","desc": "Lorem ipsum dolor sit amet, consectetur adipiscing elit"},
	{"coordinates":[4.06117,27.5455],"name":"Acfer 321","desc": "Lorem ipsum dolor sit amet, consectetur adipiscing elit"},
	{"coordinates":[4.093,27.55917],"name":"Acfer 322","desc": "Lorem ipsum dolor sit amet, consectetur adipiscing elit"},
	{"coordinates":[3.8795,27.503],"name":"Acfer 323","desc": "Lorem ipsum dolor sit amet, consectetur adipiscing elit"},
	{"coordinates":[4.03333,27.65],"name":"Acfer 330","desc": "Lorem ipsum dolor sit amet, consectetur adipiscing elit"},
	{"coordinates":[9,20.5],"name":"Adrar Bous","desc": "Lorem ipsum dolor sit amet, consectetur adipiscing elit"},
	{"coordinates":[9.35545,19.64008],"name":"Adrar Chiriet","desc": "Lorem ipsum dolor sit amet, consectetur adipiscing elit"},
	{"coordinates":[10.4941,18.61042],"name":"Adrar Madet 002","desc": "Lorem ipsum dolor sit amet, consectetur adipiscing elit"},
	{"coordinates":[10.03503,17.67987],"name":"Adrar Yaouelt","desc": "Lorem ipsum dolor sit amet, consectetur adipiscing elit"},
	{"coordinates":[-5.51528,31.98457],"name":"Agoudal","desc": "Lorem ipsum dolor sit amet, consectetur adipiscing elit"},
	{"coordinates":[-4.9,30.55],"name":"Agoult","desc": "Lorem ipsum dolor sit amet, consectetur adipiscing elit"},
	{"coordinates":[4.35,27.4],"name":"Aguemour 017","desc": "Lorem ipsum dolor sit amet, consectetur adipiscing elit"},
	{"coordinates":[28.9698,30.70952],"name":"Al Alamayn","desc": "Lorem ipsum dolor sit amet, consectetur adipiscing elit"},
	{"coordinates":[-12.5,27.5],"name":"Al Haggounia 001","desc": "Lorem ipsum dolor sit amet, consectetur adipiscing elit"},
	{"coordinates":[57.18833,19.42],"name":"Al Huqf 001","desc": "Lorem ipsum dolor sit amet, consectetur adipiscing elit"},
	{"coordinates":[57.38667,19.27167],"name":"Al Huqf 002","desc": "Lorem ipsum dolor sit amet, consectetur adipiscing elit"},
	{"coordinates":[57.11952,19.50695],"name":"Al Huqf 003","desc": "Lorem ipsum dolor sit amet, consectetur adipiscing elit"},
	{"coordinates":[55.32742,22.80487],"name":"Al Huwaysah 001","desc": "Lorem ipsum dolor sit amet, consectetur adipiscing elit"},
	{"coordinates":[55.31673,22.79853],"name":"Al Huwaysah 002","desc": "Lorem ipsum dolor sit amet, consectetur adipiscing elit"},
	{"coordinates":[55.37323,22.74862],"name":"Al Huwaysah 003","desc": "Lorem ipsum dolor sit amet, consectetur adipiscing elit"}
	]
	